{
  "name" : "reklam adı",
  "banner" : "http://adsdemo.dev/uploads/images/963852.jpg"
}
##Feed Reklam Modeli
{
  "ad_body": {
    "type" : "click",
    "size" : "slider",
    "items" : [
      {"name" : "reklam başlığı 1", "image" : "resim1.jpg", "target_url": "http://www.google.com"},
      {"name" : "reklam başlığı 2", "image" : "resim2.jpg", "target_url": "http://www.google.com"}
    ]
  },
  "ad_type": "banner",
  "kampanya_id": 1,
  "count_id": 0,
  "kural_id": 0,
  "status": 0
}

##Banner Reklam Modeli
{
  "ad_body": {
    "imaj": "MDAwMDcuanBn.jpg",
    "size": "banner",
    "target_url": "http://www.google.com",
    "alt_tag": "book reklam",
    "type": "banner"
  },
  "ad_type": "banner",
  "kampanya_id": 1,
  "count_id": 0,
  "kural_id": 0,
  "status": 0
}

##Popup Reklam Modeli
{
  "ad_body": {
    "imaj": "MDAwMDcuanBn.jpg",
    "size": "banner",
    "target_url": "http://www.google.com",
    "alt_tag": "book reklam",
    "type": "banner",
    "wait" : 500
  },
  "ad_type": "popup",
  "kampanya_id": 1,
  "count_id": 0,
  "kural_id": 0,
  "status": 0
}
